^F:\WORK\CET219\CODE\LIBRARIESDEV\BULLET3-2.83.7\SRC\BULLET3SERIALIZE\BULLET2FILELOADER\X64\RELEASE\B3BULLETFILE.OBJ|F:\WORK\CET219\CODE\LIBRARIESDEV\BULLET3-2.83.7\SRC\BULLET3SERIALIZE\BULLET2FILELOADER\X64\RELEASE\B3CHUNK.OBJ|F:\WORK\CET219\CODE\LIBRARIESDEV\BULLET3-2.83.7\SRC\BULLET3SERIALIZE\BULLET2FILELOADER\X64\RELEASE\B3DNA.OBJ|F:\WORK\CET219\CODE\LIBRARIESDEV\BULLET3-2.83.7\SRC\BULLET3SERIALIZE\BULLET2FILELOADER\X64\RELEASE\B3FILE.OBJ|F:\WORK\CET219\CODE\LIBRARIESDEV\BULLET3-2.83.7\SRC\BULLET3SERIALIZE\BULLET2FILELOADER\X64\RELEASE\B3SERIALIZER.OBJ
C:\WINDOWS\GLOBALIZATION\SORTING\SORTDEFAULT.NLS
F:\WORK\CET219\CODE\LIBRARIESDEV\BULLET3-2.83.7\SRC\BULLET3SERIALIZE\BULLET2FILELOADER\X64\RELEASE\B3BULLETFILE.OBJ
C:\WINDOWS\SYSTEM32\TZRES.DLL
F:\WORK\CET219\CODE\LIBRARIESDEV\BULLET3-2.83.7\SRC\BULLET3SERIALIZE\BULLET2FILELOADER\X64\RELEASE\B3CHUNK.OBJ
F:\WORK\CET219\CODE\LIBRARIESDEV\BULLET3-2.83.7\SRC\BULLET3SERIALIZE\BULLET2FILELOADER\X64\RELEASE\B3DNA.OBJ
F:\WORK\CET219\CODE\LIBRARIESDEV\BULLET3-2.83.7\SRC\BULLET3SERIALIZE\BULLET2FILELOADER\X64\RELEASE\B3FILE.OBJ
F:\WORK\CET219\CODE\LIBRARIESDEV\BULLET3-2.83.7\SRC\BULLET3SERIALIZE\BULLET2FILELOADER\X64\RELEASE\B3SERIALIZER.OBJ
