^F:\WORK\CET219\CODE\LIBRARIESDEV\BULLET3-2.83.7\SRC\BULLETDYNAMICS\CHARACTER\BTKINEMATICCHARACTERCONTROLLER.CPP
/c /I"F:\WORK\CET219\CODE\LIBRARIESDEV\BULLET3-2.83.7\SRC" /nologo /W3 /WX- /O2 /Ob2 /D WIN32 /D _WINDOWS /D NDEBUG /D _CRT_SECURE_NO_WARNINGS /D _CRT_SECURE_NO_DEPRECATE /D _SCL_SECURE_NO_WARNINGS /D NO_OPENGL3 /D "CMAKE_INTDIR=\"Release\"" /D _MBCS /Gm- /EHsc /MT /GS /fp:precise /Zc:wchar_t /Zc:forScope /Zc:inline /GR /Fo"X64\RELEASE\\" /Fd"X64\RELEASE\BULLETDYNAMICS.PDB" /Gd /TP F:\WORK\CET219\CODE\LIBRARIESDEV\BULLET3-2.83.7\SRC\BULLETDYNAMICS\CHARACTER\BTKINEMATICCHARACTERCONTROLLER.CPP
^F:\WORK\CET219\CODE\LIBRARIESDEV\BULLET3-2.83.7\SRC\BULLETDYNAMICS\CONSTRAINTSOLVER\BTCONETWISTCONSTRAINT.CPP
/c /I"F:\WORK\CET219\CODE\LIBRARIESDEV\BULLET3-2.83.7\SRC" /nologo /W3 /WX- /O2 /Ob2 /D WIN32 /D _WINDOWS /D NDEBUG /D _CRT_SECURE_NO_WARNINGS /D _CRT_SECURE_NO_DEPRECATE /D _SCL_SECURE_NO_WARNINGS /D NO_OPENGL3 /D "CMAKE_INTDIR=\"Release\"" /D _MBCS /Gm- /EHsc /MT /GS /fp:precise /Zc:wchar_t /Zc:forScope /Zc:inline /GR /Fo"X64\RELEASE\\" /Fd"X64\RELEASE\BULLETDYNAMICS.PDB" /Gd /TP F:\WORK\CET219\CODE\LIBRARIESDEV\BULLET3-2.83.7\SRC\BULLETDYNAMICS\CONSTRAINTSOLVER\BTCONETWISTCONSTRAINT.CPP
^F:\WORK\CET219\CODE\LIBRARIESDEV\BULLET3-2.83.7\SRC\BULLETDYNAMICS\CONSTRAINTSOLVER\BTCONTACTCONSTRAINT.CPP
/c /I"F:\WORK\CET219\CODE\LIBRARIESDEV\BULLET3-2.83.7\SRC" /nologo /W3 /WX- /O2 /Ob2 /D WIN32 /D _WINDOWS /D NDEBUG /D _CRT_SECURE_NO_WARNINGS /D _CRT_SECURE_NO_DEPRECATE /D _SCL_SECURE_NO_WARNINGS /D NO_OPENGL3 /D "CMAKE_INTDIR=\"Release\"" /D _MBCS /Gm- /EHsc /MT /GS /fp:precise /Zc:wchar_t /Zc:forScope /Zc:inline /GR /Fo"X64\RELEASE\\" /Fd"X64\RELEASE\BULLETDYNAMICS.PDB" /Gd /TP F:\WORK\CET219\CODE\LIBRARIESDEV\BULLET3-2.83.7\SRC\BULLETDYNAMICS\CONSTRAINTSOLVER\BTCONTACTCONSTRAINT.CPP
^F:\WORK\CET219\CODE\LIBRARIESDEV\BULLET3-2.83.7\SRC\BULLETDYNAMICS\CONSTRAINTSOLVER\BTFIXEDCONSTRAINT.CPP
/c /I"F:\WORK\CET219\CODE\LIBRARIESDEV\BULLET3-2.83.7\SRC" /nologo /W3 /WX- /O2 /Ob2 /D WIN32 /D _WINDOWS /D NDEBUG /D _CRT_SECURE_NO_WARNINGS /D _CRT_SECURE_NO_DEPRECATE /D _SCL_SECURE_NO_WARNINGS /D NO_OPENGL3 /D "CMAKE_INTDIR=\"Release\"" /D _MBCS /Gm- /EHsc /MT /GS /fp:precise /Zc:wchar_t /Zc:forScope /Zc:inline /GR /Fo"X64\RELEASE\\" /Fd"X64\RELEASE\BULLETDYNAMICS.PDB" /Gd /TP F:\WORK\CET219\CODE\LIBRARIESDEV\BULLET3-2.83.7\SRC\BULLETDYNAMICS\CONSTRAINTSOLVER\BTFIXEDCONSTRAINT.CPP
^F:\WORK\CET219\CODE\LIBRARIESDEV\BULLET3-2.83.7\SRC\BULLETDYNAMICS\CONSTRAINTSOLVER\BTGEARCONSTRAINT.CPP
/c /I"F:\WORK\CET219\CODE\LIBRARIESDEV\BULLET3-2.83.7\SRC" /nologo /W3 /WX- /O2 /Ob2 /D WIN32 /D _WINDOWS /D NDEBUG /D _CRT_SECURE_NO_WARNINGS /D _CRT_SECURE_NO_DEPRECATE /D _SCL_SECURE_NO_WARNINGS /D NO_OPENGL3 /D "CMAKE_INTDIR=\"Release\"" /D _MBCS /Gm- /EHsc /MT /GS /fp:precise /Zc:wchar_t /Zc:forScope /Zc:inline /GR /Fo"X64\RELEASE\\" /Fd"X64\RELEASE\BULLETDYNAMICS.PDB" /Gd /TP F:\WORK\CET219\CODE\LIBRARIESDEV\BULLET3-2.83.7\SRC\BULLETDYNAMICS\CONSTRAINTSOLVER\BTGEARCONSTRAINT.CPP
^F:\WORK\CET219\CODE\LIBRARIESDEV\BULLET3-2.83.7\SRC\BULLETDYNAMICS\CONSTRAINTSOLVER\BTGENERIC6DOFCONSTRAINT.CPP
/c /I"F:\WORK\CET219\CODE\LIBRARIESDEV\BULLET3-2.83.7\SRC" /nologo /W3 /WX- /O2 /Ob2 /D WIN32 /D _WINDOWS /D NDEBUG /D _CRT_SECURE_NO_WARNINGS /D _CRT_SECURE_NO_DEPRECATE /D _SCL_SECURE_NO_WARNINGS /D NO_OPENGL3 /D "CMAKE_INTDIR=\"Release\"" /D _MBCS /Gm- /EHsc /MT /GS /fp:precise /Zc:wchar_t /Zc:forScope /Zc:inline /GR /Fo"X64\RELEASE\\" /Fd"X64\RELEASE\BULLETDYNAMICS.PDB" /Gd /TP F:\WORK\CET219\CODE\LIBRARIESDEV\BULLET3-2.83.7\SRC\BULLETDYNAMICS\CONSTRAINTSOLVER\BTGENERIC6DOFCONSTRAINT.CPP
^F:\WORK\CET219\CODE\LIBRARIESDEV\BULLET3-2.83.7\SRC\BULLETDYNAMICS\CONSTRAINTSOLVER\BTGENERIC6DOFSPRINGCONSTRAINT.CPP
/c /I"F:\WORK\CET219\CODE\LIBRARIESDEV\BULLET3-2.83.7\SRC" /nologo /W3 /WX- /O2 /Ob2 /D WIN32 /D _WINDOWS /D NDEBUG /D _CRT_SECURE_NO_WARNINGS /D _CRT_SECURE_NO_DEPRECATE /D _SCL_SECURE_NO_WARNINGS /D NO_OPENGL3 /D "CMAKE_INTDIR=\"Release\"" /D _MBCS /Gm- /EHsc /MT /GS /fp:precise /Zc:wchar_t /Zc:forScope /Zc:inline /GR /Fo"X64\RELEASE\\" /Fd"X64\RELEASE\BULLETDYNAMICS.PDB" /Gd /TP F:\WORK\CET219\CODE\LIBRARIESDEV\BULLET3-2.83.7\SRC\BULLETDYNAMICS\CONSTRAINTSOLVER\BTGENERIC6DOFSPRINGCONSTRAINT.CPP
^F:\WORK\CET219\CODE\LIBRARIESDEV\BULLET3-2.83.7\SRC\BULLETDYNAMICS\CONSTRAINTSOLVER\BTGENERIC6DOFSPRING2CONSTRAINT.CPP
/c /I"F:\WORK\CET219\CODE\LIBRARIESDEV\BULLET3-2.83.7\SRC" /nologo /W3 /WX- /O2 /Ob2 /D WIN32 /D _WINDOWS /D NDEBUG /D _CRT_SECURE_NO_WARNINGS /D _CRT_SECURE_NO_DEPRECATE /D _SCL_SECURE_NO_WARNINGS /D NO_OPENGL3 /D "CMAKE_INTDIR=\"Release\"" /D _MBCS /Gm- /EHsc /MT /GS /fp:precise /Zc:wchar_t /Zc:forScope /Zc:inline /GR /Fo"X64\RELEASE\\" /Fd"X64\RELEASE\BULLETDYNAMICS.PDB" /Gd /TP F:\WORK\CET219\CODE\LIBRARIESDEV\BULLET3-2.83.7\SRC\BULLETDYNAMICS\CONSTRAINTSOLVER\BTGENERIC6DOFSPRING2CONSTRAINT.CPP
^F:\WORK\CET219\CODE\LIBRARIESDEV\BULLET3-2.83.7\SRC\BULLETDYNAMICS\CONSTRAINTSOLVER\BTHINGE2CONSTRAINT.CPP
/c /I"F:\WORK\CET219\CODE\LIBRARIESDEV\BULLET3-2.83.7\SRC" /nologo /W3 /WX- /O2 /Ob2 /D WIN32 /D _WINDOWS /D NDEBUG /D _CRT_SECURE_NO_WARNINGS /D _CRT_SECURE_NO_DEPRECATE /D _SCL_SECURE_NO_WARNINGS /D NO_OPENGL3 /D "CMAKE_INTDIR=\"Release\"" /D _MBCS /Gm- /EHsc /MT /GS /fp:precise /Zc:wchar_t /Zc:forScope /Zc:inline /GR /Fo"X64\RELEASE\\" /Fd"X64\RELEASE\BULLETDYNAMICS.PDB" /Gd /TP F:\WORK\CET219\CODE\LIBRARIESDEV\BULLET3-2.83.7\SRC\BULLETDYNAMICS\CONSTRAINTSOLVER\BTHINGE2CONSTRAINT.CPP
^F:\WORK\CET219\CODE\LIBRARIESDEV\BULLET3-2.83.7\SRC\BULLETDYNAMICS\CONSTRAINTSOLVER\BTHINGECONSTRAINT.CPP
/c /I"F:\WORK\CET219\CODE\LIBRARIESDEV\BULLET3-2.83.7\SRC" /nologo /W3 /WX- /O2 /Ob2 /D WIN32 /D _WINDOWS /D NDEBUG /D _CRT_SECURE_NO_WARNINGS /D _CRT_SECURE_NO_DEPRECATE /D _SCL_SECURE_NO_WARNINGS /D NO_OPENGL3 /D "CMAKE_INTDIR=\"Release\"" /D _MBCS /Gm- /EHsc /MT /GS /fp:precise /Zc:wchar_t /Zc:forScope /Zc:inline /GR /Fo"X64\RELEASE\\" /Fd"X64\RELEASE\BULLETDYNAMICS.PDB" /Gd /TP F:\WORK\CET219\CODE\LIBRARIESDEV\BULLET3-2.83.7\SRC\BULLETDYNAMICS\CONSTRAINTSOLVER\BTHINGECONSTRAINT.CPP
^F:\WORK\CET219\CODE\LIBRARIESDEV\BULLET3-2.83.7\SRC\BULLETDYNAMICS\CONSTRAINTSOLVER\BTPOINT2POINTCONSTRAINT.CPP
/c /I"F:\WORK\CET219\CODE\LIBRARIESDEV\BULLET3-2.83.7\SRC" /nologo /W3 /WX- /O2 /Ob2 /D WIN32 /D _WINDOWS /D NDEBUG /D _CRT_SECURE_NO_WARNINGS /D _CRT_SECURE_NO_DEPRECATE /D _SCL_SECURE_NO_WARNINGS /D NO_OPENGL3 /D "CMAKE_INTDIR=\"Release\"" /D _MBCS /Gm- /EHsc /MT /GS /fp:precise /Zc:wchar_t /Zc:forScope /Zc:inline /GR /Fo"X64\RELEASE\\" /Fd"X64\RELEASE\BULLETDYNAMICS.PDB" /Gd /TP F:\WORK\CET219\CODE\LIBRARIESDEV\BULLET3-2.83.7\SRC\BULLETDYNAMICS\CONSTRAINTSOLVER\BTPOINT2POINTCONSTRAINT.CPP
^F:\WORK\CET219\CODE\LIBRARIESDEV\BULLET3-2.83.7\SRC\BULLETDYNAMICS\CONSTRAINTSOLVER\BTSEQUENTIALIMPULSECONSTRAINTSOLVER.CPP
/c /I"F:\WORK\CET219\CODE\LIBRARIESDEV\BULLET3-2.83.7\SRC" /nologo /W3 /WX- /O2 /Ob2 /D WIN32 /D _WINDOWS /D NDEBUG /D _CRT_SECURE_NO_WARNINGS /D _CRT_SECURE_NO_DEPRECATE /D _SCL_SECURE_NO_WARNINGS /D NO_OPENGL3 /D "CMAKE_INTDIR=\"Release\"" /D _MBCS /Gm- /EHsc /MT /GS /fp:precise /Zc:wchar_t /Zc:forScope /Zc:inline /GR /Fo"X64\RELEASE\\" /Fd"X64\RELEASE\BULLETDYNAMICS.PDB" /Gd /TP F:\WORK\CET219\CODE\LIBRARIESDEV\BULLET3-2.83.7\SRC\BULLETDYNAMICS\CONSTRAINTSOLVER\BTSEQUENTIALIMPULSECONSTRAINTSOLVER.CPP
^F:\WORK\CET219\CODE\LIBRARIESDEV\BULLET3-2.83.7\SRC\BULLETDYNAMICS\CONSTRAINTSOLVER\BTNNCGCONSTRAINTSOLVER.CPP
/c /I"F:\WORK\CET219\CODE\LIBRARIESDEV\BULLET3-2.83.7\SRC" /nologo /W3 /WX- /O2 /Ob2 /D WIN32 /D _WINDOWS /D NDEBUG /D _CRT_SECURE_NO_WARNINGS /D _CRT_SECURE_NO_DEPRECATE /D _SCL_SECURE_NO_WARNINGS /D NO_OPENGL3 /D "CMAKE_INTDIR=\"Release\"" /D _MBCS /Gm- /EHsc /MT /GS /fp:precise /Zc:wchar_t /Zc:forScope /Zc:inline /GR /Fo"X64\RELEASE\\" /Fd"X64\RELEASE\BULLETDYNAMICS.PDB" /Gd /TP F:\WORK\CET219\CODE\LIBRARIESDEV\BULLET3-2.83.7\SRC\BULLETDYNAMICS\CONSTRAINTSOLVER\BTNNCGCONSTRAINTSOLVER.CPP
^F:\WORK\CET219\CODE\LIBRARIESDEV\BULLET3-2.83.7\SRC\BULLETDYNAMICS\CONSTRAINTSOLVER\BTSLIDERCONSTRAINT.CPP
/c /I"F:\WORK\CET219\CODE\LIBRARIESDEV\BULLET3-2.83.7\SRC" /nologo /W3 /WX- /O2 /Ob2 /D WIN32 /D _WINDOWS /D NDEBUG /D _CRT_SECURE_NO_WARNINGS /D _CRT_SECURE_NO_DEPRECATE /D _SCL_SECURE_NO_WARNINGS /D NO_OPENGL3 /D "CMAKE_INTDIR=\"Release\"" /D _MBCS /Gm- /EHsc /MT /GS /fp:precise /Zc:wchar_t /Zc:forScope /Zc:inline /GR /Fo"X64\RELEASE\\" /Fd"X64\RELEASE\BULLETDYNAMICS.PDB" /Gd /TP F:\WORK\CET219\CODE\LIBRARIESDEV\BULLET3-2.83.7\SRC\BULLETDYNAMICS\CONSTRAINTSOLVER\BTSLIDERCONSTRAINT.CPP
^F:\WORK\CET219\CODE\LIBRARIESDEV\BULLET3-2.83.7\SRC\BULLETDYNAMICS\CONSTRAINTSOLVER\BTSOLVE2LINEARCONSTRAINT.CPP
/c /I"F:\WORK\CET219\CODE\LIBRARIESDEV\BULLET3-2.83.7\SRC" /nologo /W3 /WX- /O2 /Ob2 /D WIN32 /D _WINDOWS /D NDEBUG /D _CRT_SECURE_NO_WARNINGS /D _CRT_SECURE_NO_DEPRECATE /D _SCL_SECURE_NO_WARNINGS /D NO_OPENGL3 /D "CMAKE_INTDIR=\"Release\"" /D _MBCS /Gm- /EHsc /MT /GS /fp:precise /Zc:wchar_t /Zc:forScope /Zc:inline /GR /Fo"X64\RELEASE\\" /Fd"X64\RELEASE\BULLETDYNAMICS.PDB" /Gd /TP F:\WORK\CET219\CODE\LIBRARIESDEV\BULLET3-2.83.7\SRC\BULLETDYNAMICS\CONSTRAINTSOLVER\BTSOLVE2LINEARCONSTRAINT.CPP
^F:\WORK\CET219\CODE\LIBRARIESDEV\BULLET3-2.83.7\SRC\BULLETDYNAMICS\CONSTRAINTSOLVER\BTTYPEDCONSTRAINT.CPP
/c /I"F:\WORK\CET219\CODE\LIBRARIESDEV\BULLET3-2.83.7\SRC" /nologo /W3 /WX- /O2 /Ob2 /D WIN32 /D _WINDOWS /D NDEBUG /D _CRT_SECURE_NO_WARNINGS /D _CRT_SECURE_NO_DEPRECATE /D _SCL_SECURE_NO_WARNINGS /D NO_OPENGL3 /D "CMAKE_INTDIR=\"Release\"" /D _MBCS /Gm- /EHsc /MT /GS /fp:precise /Zc:wchar_t /Zc:forScope /Zc:inline /GR /Fo"X64\RELEASE\\" /Fd"X64\RELEASE\BULLETDYNAMICS.PDB" /Gd /TP F:\WORK\CET219\CODE\LIBRARIESDEV\BULLET3-2.83.7\SRC\BULLETDYNAMICS\CONSTRAINTSOLVER\BTTYPEDCONSTRAINT.CPP
^F:\WORK\CET219\CODE\LIBRARIESDEV\BULLET3-2.83.7\SRC\BULLETDYNAMICS\CONSTRAINTSOLVER\BTUNIVERSALCONSTRAINT.CPP
/c /I"F:\WORK\CET219\CODE\LIBRARIESDEV\BULLET3-2.83.7\SRC" /nologo /W3 /WX- /O2 /Ob2 /D WIN32 /D _WINDOWS /D NDEBUG /D _CRT_SECURE_NO_WARNINGS /D _CRT_SECURE_NO_DEPRECATE /D _SCL_SECURE_NO_WARNINGS /D NO_OPENGL3 /D "CMAKE_INTDIR=\"Release\"" /D _MBCS /Gm- /EHsc /MT /GS /fp:precise /Zc:wchar_t /Zc:forScope /Zc:inline /GR /Fo"X64\RELEASE\\" /Fd"X64\RELEASE\BULLETDYNAMICS.PDB" /Gd /TP F:\WORK\CET219\CODE\LIBRARIESDEV\BULLET3-2.83.7\SRC\BULLETDYNAMICS\CONSTRAINTSOLVER\BTUNIVERSALCONSTRAINT.CPP
^F:\WORK\CET219\CODE\LIBRARIESDEV\BULLET3-2.83.7\SRC\BULLETDYNAMICS\DYNAMICS\BTDISCRETEDYNAMICSWORLD.CPP
/c /I"F:\WORK\CET219\CODE\LIBRARIESDEV\BULLET3-2.83.7\SRC" /nologo /W3 /WX- /O2 /Ob2 /D WIN32 /D _WINDOWS /D NDEBUG /D _CRT_SECURE_NO_WARNINGS /D _CRT_SECURE_NO_DEPRECATE /D _SCL_SECURE_NO_WARNINGS /D NO_OPENGL3 /D "CMAKE_INTDIR=\"Release\"" /D _MBCS /Gm- /EHsc /MT /GS /fp:precise /Zc:wchar_t /Zc:forScope /Zc:inline /GR /Fo"X64\RELEASE\\" /Fd"X64\RELEASE\BULLETDYNAMICS.PDB" /Gd /TP F:\WORK\CET219\CODE\LIBRARIESDEV\BULLET3-2.83.7\SRC\BULLETDYNAMICS\DYNAMICS\BTDISCRETEDYNAMICSWORLD.CPP
^F:\WORK\CET219\CODE\LIBRARIESDEV\BULLET3-2.83.7\SRC\BULLETDYNAMICS\DYNAMICS\BTRIGIDBODY.CPP
/c /I"F:\WORK\CET219\CODE\LIBRARIESDEV\BULLET3-2.83.7\SRC" /nologo /W3 /WX- /O2 /Ob2 /D WIN32 /D _WINDOWS /D NDEBUG /D _CRT_SECURE_NO_WARNINGS /D _CRT_SECURE_NO_DEPRECATE /D _SCL_SECURE_NO_WARNINGS /D NO_OPENGL3 /D "CMAKE_INTDIR=\"Release\"" /D _MBCS /Gm- /EHsc /MT /GS /fp:precise /Zc:wchar_t /Zc:forScope /Zc:inline /GR /Fo"X64\RELEASE\\" /Fd"X64\RELEASE\BULLETDYNAMICS.PDB" /Gd /TP F:\WORK\CET219\CODE\LIBRARIESDEV\BULLET3-2.83.7\SRC\BULLETDYNAMICS\DYNAMICS\BTRIGIDBODY.CPP
^F:\WORK\CET219\CODE\LIBRARIESDEV\BULLET3-2.83.7\SRC\BULLETDYNAMICS\DYNAMICS\BTSIMPLEDYNAMICSWORLD.CPP
/c /I"F:\WORK\CET219\CODE\LIBRARIESDEV\BULLET3-2.83.7\SRC" /nologo /W3 /WX- /O2 /Ob2 /D WIN32 /D _WINDOWS /D NDEBUG /D _CRT_SECURE_NO_WARNINGS /D _CRT_SECURE_NO_DEPRECATE /D _SCL_SECURE_NO_WARNINGS /D NO_OPENGL3 /D "CMAKE_INTDIR=\"Release\"" /D _MBCS /Gm- /EHsc /MT /GS /fp:precise /Zc:wchar_t /Zc:forScope /Zc:inline /GR /Fo"X64\RELEASE\\" /Fd"X64\RELEASE\BULLETDYNAMICS.PDB" /Gd /TP F:\WORK\CET219\CODE\LIBRARIESDEV\BULLET3-2.83.7\SRC\BULLETDYNAMICS\DYNAMICS\BTSIMPLEDYNAMICSWORLD.CPP
^F:\WORK\CET219\CODE\LIBRARIESDEV\BULLET3-2.83.7\SRC\BULLETDYNAMICS\VEHICLE\BTRAYCASTVEHICLE.CPP
/c /I"F:\WORK\CET219\CODE\LIBRARIESDEV\BULLET3-2.83.7\SRC" /nologo /W3 /WX- /O2 /Ob2 /D WIN32 /D _WINDOWS /D NDEBUG /D _CRT_SECURE_NO_WARNINGS /D _CRT_SECURE_NO_DEPRECATE /D _SCL_SECURE_NO_WARNINGS /D NO_OPENGL3 /D "CMAKE_INTDIR=\"Release\"" /D _MBCS /Gm- /EHsc /MT /GS /fp:precise /Zc:wchar_t /Zc:forScope /Zc:inline /GR /Fo"X64\RELEASE\\" /Fd"X64\RELEASE\BULLETDYNAMICS.PDB" /Gd /TP F:\WORK\CET219\CODE\LIBRARIESDEV\BULLET3-2.83.7\SRC\BULLETDYNAMICS\VEHICLE\BTRAYCASTVEHICLE.CPP
^F:\WORK\CET219\CODE\LIBRARIESDEV\BULLET3-2.83.7\SRC\BULLETDYNAMICS\VEHICLE\BTWHEELINFO.CPP
/c /I"F:\WORK\CET219\CODE\LIBRARIESDEV\BULLET3-2.83.7\SRC" /nologo /W3 /WX- /O2 /Ob2 /D WIN32 /D _WINDOWS /D NDEBUG /D _CRT_SECURE_NO_WARNINGS /D _CRT_SECURE_NO_DEPRECATE /D _SCL_SECURE_NO_WARNINGS /D NO_OPENGL3 /D "CMAKE_INTDIR=\"Release\"" /D _MBCS /Gm- /EHsc /MT /GS /fp:precise /Zc:wchar_t /Zc:forScope /Zc:inline /GR /Fo"X64\RELEASE\\" /Fd"X64\RELEASE\BULLETDYNAMICS.PDB" /Gd /TP F:\WORK\CET219\CODE\LIBRARIESDEV\BULLET3-2.83.7\SRC\BULLETDYNAMICS\VEHICLE\BTWHEELINFO.CPP
^F:\WORK\CET219\CODE\LIBRARIESDEV\BULLET3-2.83.7\SRC\BULLETDYNAMICS\FEATHERSTONE\BTMULTIBODY.CPP
/c /I"F:\WORK\CET219\CODE\LIBRARIESDEV\BULLET3-2.83.7\SRC" /nologo /W3 /WX- /O2 /Ob2 /D WIN32 /D _WINDOWS /D NDEBUG /D _CRT_SECURE_NO_WARNINGS /D _CRT_SECURE_NO_DEPRECATE /D _SCL_SECURE_NO_WARNINGS /D NO_OPENGL3 /D "CMAKE_INTDIR=\"Release\"" /D _MBCS /Gm- /EHsc /MT /GS /fp:precise /Zc:wchar_t /Zc:forScope /Zc:inline /GR /Fo"X64\RELEASE\\" /Fd"X64\RELEASE\BULLETDYNAMICS.PDB" /Gd /TP F:\WORK\CET219\CODE\LIBRARIESDEV\BULLET3-2.83.7\SRC\BULLETDYNAMICS\FEATHERSTONE\BTMULTIBODY.CPP
^F:\WORK\CET219\CODE\LIBRARIESDEV\BULLET3-2.83.7\SRC\BULLETDYNAMICS\FEATHERSTONE\BTMULTIBODYCONSTRAINTSOLVER.CPP
/c /I"F:\WORK\CET219\CODE\LIBRARIESDEV\BULLET3-2.83.7\SRC" /nologo /W3 /WX- /O2 /Ob2 /D WIN32 /D _WINDOWS /D NDEBUG /D _CRT_SECURE_NO_WARNINGS /D _CRT_SECURE_NO_DEPRECATE /D _SCL_SECURE_NO_WARNINGS /D NO_OPENGL3 /D "CMAKE_INTDIR=\"Release\"" /D _MBCS /Gm- /EHsc /MT /GS /fp:precise /Zc:wchar_t /Zc:forScope /Zc:inline /GR /Fo"X64\RELEASE\\" /Fd"X64\RELEASE\BULLETDYNAMICS.PDB" /Gd /TP F:\WORK\CET219\CODE\LIBRARIESDEV\BULLET3-2.83.7\SRC\BULLETDYNAMICS\FEATHERSTONE\BTMULTIBODYCONSTRAINTSOLVER.CPP
^F:\WORK\CET219\CODE\LIBRARIESDEV\BULLET3-2.83.7\SRC\BULLETDYNAMICS\FEATHERSTONE\BTMULTIBODYDYNAMICSWORLD.CPP
/c /I"F:\WORK\CET219\CODE\LIBRARIESDEV\BULLET3-2.83.7\SRC" /nologo /W3 /WX- /O2 /Ob2 /D WIN32 /D _WINDOWS /D NDEBUG /D _CRT_SECURE_NO_WARNINGS /D _CRT_SECURE_NO_DEPRECATE /D _SCL_SECURE_NO_WARNINGS /D NO_OPENGL3 /D "CMAKE_INTDIR=\"Release\"" /D _MBCS /Gm- /EHsc /MT /GS /fp:precise /Zc:wchar_t /Zc:forScope /Zc:inline /GR /Fo"X64\RELEASE\\" /Fd"X64\RELEASE\BULLETDYNAMICS.PDB" /Gd /TP F:\WORK\CET219\CODE\LIBRARIESDEV\BULLET3-2.83.7\SRC\BULLETDYNAMICS\FEATHERSTONE\BTMULTIBODYDYNAMICSWORLD.CPP
^F:\WORK\CET219\CODE\LIBRARIESDEV\BULLET3-2.83.7\SRC\BULLETDYNAMICS\FEATHERSTONE\BTMULTIBODYJOINTLIMITCONSTRAINT.CPP
/c /I"F:\WORK\CET219\CODE\LIBRARIESDEV\BULLET3-2.83.7\SRC" /nologo /W3 /WX- /O2 /Ob2 /D WIN32 /D _WINDOWS /D NDEBUG /D _CRT_SECURE_NO_WARNINGS /D _CRT_SECURE_NO_DEPRECATE /D _SCL_SECURE_NO_WARNINGS /D NO_OPENGL3 /D "CMAKE_INTDIR=\"Release\"" /D _MBCS /Gm- /EHsc /MT /GS /fp:precise /Zc:wchar_t /Zc:forScope /Zc:inline /GR /Fo"X64\RELEASE\\" /Fd"X64\RELEASE\BULLETDYNAMICS.PDB" /Gd /TP F:\WORK\CET219\CODE\LIBRARIESDEV\BULLET3-2.83.7\SRC\BULLETDYNAMICS\FEATHERSTONE\BTMULTIBODYJOINTLIMITCONSTRAINT.CPP
^F:\WORK\CET219\CODE\LIBRARIESDEV\BULLET3-2.83.7\SRC\BULLETDYNAMICS\FEATHERSTONE\BTMULTIBODYCONSTRAINT.CPP
/c /I"F:\WORK\CET219\CODE\LIBRARIESDEV\BULLET3-2.83.7\SRC" /nologo /W3 /WX- /O2 /Ob2 /D WIN32 /D _WINDOWS /D NDEBUG /D _CRT_SECURE_NO_WARNINGS /D _CRT_SECURE_NO_DEPRECATE /D _SCL_SECURE_NO_WARNINGS /D NO_OPENGL3 /D "CMAKE_INTDIR=\"Release\"" /D _MBCS /Gm- /EHsc /MT /GS /fp:precise /Zc:wchar_t /Zc:forScope /Zc:inline /GR /Fo"X64\RELEASE\\" /Fd"X64\RELEASE\BULLETDYNAMICS.PDB" /Gd /TP F:\WORK\CET219\CODE\LIBRARIESDEV\BULLET3-2.83.7\SRC\BULLETDYNAMICS\FEATHERSTONE\BTMULTIBODYCONSTRAINT.CPP
^F:\WORK\CET219\CODE\LIBRARIESDEV\BULLET3-2.83.7\SRC\BULLETDYNAMICS\FEATHERSTONE\BTMULTIBODYPOINT2POINT.CPP
/c /I"F:\WORK\CET219\CODE\LIBRARIESDEV\BULLET3-2.83.7\SRC" /nologo /W3 /WX- /O2 /Ob2 /D WIN32 /D _WINDOWS /D NDEBUG /D _CRT_SECURE_NO_WARNINGS /D _CRT_SECURE_NO_DEPRECATE /D _SCL_SECURE_NO_WARNINGS /D NO_OPENGL3 /D "CMAKE_INTDIR=\"Release\"" /D _MBCS /Gm- /EHsc /MT /GS /fp:precise /Zc:wchar_t /Zc:forScope /Zc:inline /GR /Fo"X64\RELEASE\\" /Fd"X64\RELEASE\BULLETDYNAMICS.PDB" /Gd /TP F:\WORK\CET219\CODE\LIBRARIESDEV\BULLET3-2.83.7\SRC\BULLETDYNAMICS\FEATHERSTONE\BTMULTIBODYPOINT2POINT.CPP
^F:\WORK\CET219\CODE\LIBRARIESDEV\BULLET3-2.83.7\SRC\BULLETDYNAMICS\FEATHERSTONE\BTMULTIBODYJOINTMOTOR.CPP
/c /I"F:\WORK\CET219\CODE\LIBRARIESDEV\BULLET3-2.83.7\SRC" /nologo /W3 /WX- /O2 /Ob2 /D WIN32 /D _WINDOWS /D NDEBUG /D _CRT_SECURE_NO_WARNINGS /D _CRT_SECURE_NO_DEPRECATE /D _SCL_SECURE_NO_WARNINGS /D NO_OPENGL3 /D "CMAKE_INTDIR=\"Release\"" /D _MBCS /Gm- /EHsc /MT /GS /fp:precise /Zc:wchar_t /Zc:forScope /Zc:inline /GR /Fo"X64\RELEASE\\" /Fd"X64\RELEASE\BULLETDYNAMICS.PDB" /Gd /TP F:\WORK\CET219\CODE\LIBRARIESDEV\BULLET3-2.83.7\SRC\BULLETDYNAMICS\FEATHERSTONE\BTMULTIBODYJOINTMOTOR.CPP
^F:\WORK\CET219\CODE\LIBRARIESDEV\BULLET3-2.83.7\SRC\BULLETDYNAMICS\MLCPSOLVERS\BTDANTZIGLCP.CPP
/c /I"F:\WORK\CET219\CODE\LIBRARIESDEV\BULLET3-2.83.7\SRC" /nologo /W3 /WX- /O2 /Ob2 /D WIN32 /D _WINDOWS /D NDEBUG /D _CRT_SECURE_NO_WARNINGS /D _CRT_SECURE_NO_DEPRECATE /D _SCL_SECURE_NO_WARNINGS /D NO_OPENGL3 /D "CMAKE_INTDIR=\"Release\"" /D _MBCS /Gm- /EHsc /MT /GS /fp:precise /Zc:wchar_t /Zc:forScope /Zc:inline /GR /Fo"X64\RELEASE\\" /Fd"X64\RELEASE\BULLETDYNAMICS.PDB" /Gd /TP F:\WORK\CET219\CODE\LIBRARIESDEV\BULLET3-2.83.7\SRC\BULLETDYNAMICS\MLCPSOLVERS\BTDANTZIGLCP.CPP
^F:\WORK\CET219\CODE\LIBRARIESDEV\BULLET3-2.83.7\SRC\BULLETDYNAMICS\MLCPSOLVERS\BTMLCPSOLVER.CPP
/c /I"F:\WORK\CET219\CODE\LIBRARIESDEV\BULLET3-2.83.7\SRC" /nologo /W3 /WX- /O2 /Ob2 /D WIN32 /D _WINDOWS /D NDEBUG /D _CRT_SECURE_NO_WARNINGS /D _CRT_SECURE_NO_DEPRECATE /D _SCL_SECURE_NO_WARNINGS /D NO_OPENGL3 /D "CMAKE_INTDIR=\"Release\"" /D _MBCS /Gm- /EHsc /MT /GS /fp:precise /Zc:wchar_t /Zc:forScope /Zc:inline /GR /Fo"X64\RELEASE\\" /Fd"X64\RELEASE\BULLETDYNAMICS.PDB" /Gd /TP F:\WORK\CET219\CODE\LIBRARIESDEV\BULLET3-2.83.7\SRC\BULLETDYNAMICS\MLCPSOLVERS\BTMLCPSOLVER.CPP
^F:\WORK\CET219\CODE\LIBRARIESDEV\BULLET3-2.83.7\SRC\BULLETDYNAMICS\MLCPSOLVERS\BTLEMKEALGORITHM.CPP
/c /I"F:\WORK\CET219\CODE\LIBRARIESDEV\BULLET3-2.83.7\SRC" /nologo /W3 /WX- /O2 /Ob2 /D WIN32 /D _WINDOWS /D NDEBUG /D _CRT_SECURE_NO_WARNINGS /D _CRT_SECURE_NO_DEPRECATE /D _SCL_SECURE_NO_WARNINGS /D NO_OPENGL3 /D "CMAKE_INTDIR=\"Release\"" /D _MBCS /Gm- /EHsc /MT /GS /fp:precise /Zc:wchar_t /Zc:forScope /Zc:inline /GR /Fo"X64\RELEASE\\" /Fd"X64\RELEASE\BULLETDYNAMICS.PDB" /Gd /TP F:\WORK\CET219\CODE\LIBRARIESDEV\BULLET3-2.83.7\SRC\BULLETDYNAMICS\MLCPSOLVERS\BTLEMKEALGORITHM.CPP
