^F:\WORK\CET219\CODE\LIBRARIESDEV\BULLET3-2.83.7\EXTRAS\SERIALIZE\BULLETWORLDIMPORTER\BTBULLETWORLDIMPORTER.CPP
/c /I"F:\WORK\CET219\CODE\LIBRARIESDEV\BULLET3-2.83.7\SRC" /I"F:\WORK\CET219\CODE\LIBRARIESDEV\BULLET3-2.83.7\EXTRAS\SERIALIZE\BULLETFILELOADER" /nologo /W3 /WX- /O2 /Ob2 /D WIN32 /D _WINDOWS /D NDEBUG /D _CRT_SECURE_NO_WARNINGS /D _CRT_SECURE_NO_DEPRECATE /D _SCL_SECURE_NO_WARNINGS /D NO_OPENGL3 /D "CMAKE_INTDIR=\"Release\"" /D _MBCS /Gm- /EHsc /MT /GS /fp:precise /Zc:wchar_t /Zc:forScope /Zc:inline /GR /Fo"X64\RELEASE\\" /Fd"X64\RELEASE\BULLETWORLDIMPORTER.PDB" /Gd /TP F:\WORK\CET219\CODE\LIBRARIESDEV\BULLET3-2.83.7\EXTRAS\SERIALIZE\BULLETWORLDIMPORTER\BTBULLETWORLDIMPORTER.CPP
^F:\WORK\CET219\CODE\LIBRARIESDEV\BULLET3-2.83.7\EXTRAS\SERIALIZE\BULLETWORLDIMPORTER\BTWORLDIMPORTER.CPP
/c /I"F:\WORK\CET219\CODE\LIBRARIESDEV\BULLET3-2.83.7\SRC" /I"F:\WORK\CET219\CODE\LIBRARIESDEV\BULLET3-2.83.7\EXTRAS\SERIALIZE\BULLETFILELOADER" /nologo /W3 /WX- /O2 /Ob2 /D WIN32 /D _WINDOWS /D NDEBUG /D _CRT_SECURE_NO_WARNINGS /D _CRT_SECURE_NO_DEPRECATE /D _SCL_SECURE_NO_WARNINGS /D NO_OPENGL3 /D "CMAKE_INTDIR=\"Release\"" /D _MBCS /Gm- /EHsc /MT /GS /fp:precise /Zc:wchar_t /Zc:forScope /Zc:inline /GR /Fo"X64\RELEASE\\" /Fd"X64\RELEASE\BULLETWORLDIMPORTER.PDB" /Gd /TP F:\WORK\CET219\CODE\LIBRARIESDEV\BULLET3-2.83.7\EXTRAS\SERIALIZE\BULLETWORLDIMPORTER\BTWORLDIMPORTER.CPP
