^F:\WORK\CET219\CODE\LIBRARIESDEV\BULLET3-2.83.7\EXTRAS\GIMPACTUTILS\X64\RELEASE\BTGIMPACTCONVEXDECOMPOSITIONSHAPE.OBJ
C:\WINDOWS\GLOBALIZATION\SORTING\SORTDEFAULT.NLS
F:\WORK\CET219\CODE\LIBRARIESDEV\BULLET3-2.83.7\EXTRAS\GIMPACTUTILS\X64\RELEASE\BTGIMPACTCONVEXDECOMPOSITIONSHAPE.OBJ
C:\WINDOWS\SYSTEM32\TZRES.DLL
